 SWEEP3D - Method 5 - Pipelined Wavefront with Line-Recursion
 Version 2.2b
 S6P1   -  6 angles/octant,  4 moments
 global grid:  10x 10x400
           1 domains   -            1 x           1 decomposition
           1 domain pipelined blocks -         400 k-planes by           6 angles each
 estimated memory usage per domain:    5.3 MB
           0 global messages per iteration
100.00% domain parallel efficiency - due to decomposition & blocking
100.00% multitasking efficiency on   1 processors
100.00% combined efficiency on a cluster of    1   1-way SMPs
 DSA leakage calculation: ON
 Flux fixups: ON (after          11 iterations)
 Iteration Monitor:
  its =            1  err =    1.0000000000000000        fixs =            0
  its =            2  err =    1990.1878117210033        fixs =            0
  its =            3  err =    149.99971419856004        fixs =            0
  its =            4  err =    69.434320573423349        fixs =            0
  its =            5  err =    72.260203519120495        fixs =            0
  its =            6  err =    11.681648794442630        fixs =            0
  its =            7  err =    28.620987947118554        fixs =            0
  its =            8  err =    19.194935982372606        fixs =            0
  its =            9  err =    578.29069587965114        fixs =            0
  its =           10  err =    1.0036704368300227        fixs =            0
 Balance quantities:
  External Source:    2.1439999999998749     
  Absorption:        0.71088115300972132     
  I-leakages:       -0.35827962359754933       0.35827962359754939     
  J-leakages:       -0.35827962359754850       0.35827962359754845     
  K-leakages:         2.1802073420113511E-012  -2.1802073420113317E-012
 CPU     time was:    26.829999999999998     
 Elapsed time was:    40.566843032836914     
 CPU grind time:    1.40    
 Wall grind time:   2.11    
