 SWEEP3D - Method 5 - Pipelined Wavefront with Line-Recursion
 Version 2.2b
 S6P1   -  6 angles/octant,  4 moments
 global grid:  20x 10x400
           2 domains   -            2 x           1 decomposition
          80 domain pipelined blocks -          10 k-planes by           3 angles each
 estimated memory usage per domain:    5.3 MB
         640 global messages per iteration
 99.69% domain parallel efficiency - due to decomposition & blocking
100.00% multitasking efficiency on   1 processors
 99.69% combined efficiency on a cluster of    2   1-way SMPs
 DSA leakage calculation: ON
 Flux fixups: ON (after          11 iterations)
 Iteration Monitor:
  its =            1  err =    1.0000000000000000        fixs =            0
  its =            2  err =    346.10842580416232        fixs =            0
  its =            3  err =    166.91635297634431        fixs =            0
  its =            4  err =    529.87373714087232        fixs =            0
  its =            5  err =    124.60076064823132        fixs =            0
  its =            6  err =    265.49995531856030        fixs =            0
  its =            7  err =    21.970934147110206        fixs =            0
  its =            8  err =    14.416885617468466        fixs =            0
  its =            9  err =    7.6691915215421202        fixs =            0
  its =           10  err =    27.623745166413268        fixs =            0
 Balance quantities:
  External Source:    3.2159999999998674     
  Absorption:         1.3382495414044691     
  I-leakages:       -0.24783456882822777       0.24783456882822782     
  J-leakages:       -0.69103907136406284       0.69103907136406284     
  K-leakages:         7.3839681225403316E-010  -7.3839681225403130E-010
 CPU     time was:    23.969999999999999     
 Elapsed time was:    41.403275012969971     
 CPU grind time:   0.624    
 Wall grind time:   1.08    
