 SWEEP3D - Method 5 - Pipelined Wavefront with Line-Recursion
 Version 2.2b
 S6P1   -  6 angles/octant,  4 moments
 global grid:  20x 20x400
           4 domains   -            2 x           2 decomposition
          80 domain pipelined blocks -          10 k-planes by           3 angles each
 estimated memory usage per domain:    5.3 MB
        2560 global messages per iteration
 99.07% domain parallel efficiency - due to decomposition & blocking
100.00% multitasking efficiency on   1 processors
 99.07% combined efficiency on a cluster of    4   1-way SMPs
 DSA leakage calculation: ON
 Flux fixups: ON (after          11 iterations)
 Iteration Monitor:
  its =            1  err =    1.0000000000000000        fixs =            0
  its =            2  err =    131.06785926558265        fixs =            0
  its =            3  err =    479.83317001888076        fixs =            0
  its =            4  err =    4615.4001269547171        fixs =            0
  its =            5  err =    994.49356797974360        fixs =            0
  its =            6  err =    44.015020171314241        fixs =            0
  its =            7  err =    143.10830664437938        fixs =            0
  its =            8  err =    14.998648537766641        fixs =            0
  its =            9  err =    447.24382439908391        fixs =            0
  its =           10  err =    14.661154436465095        fixs =            0
 Balance quantities:
  External Source:    4.8239999999999119     
  Absorption:         2.6630602704425330     
  I-leakages:       -0.54022549692066313       0.54022549692066313     
  J-leakages:       -0.54022549692066180       0.54022549692066180     
  K-leakages:        -4.5873005487474060E-009   4.5873005487474159E-009
 CPU     time was:    26.559999999999999     
 Elapsed time was:    50.098273038864136     
 CPU grind time:   0.346    
 Wall grind time:  0.652    
