 SWEEP3D - Method 5 - Pipelined Wavefront with Line-Recursion
 Version 2.2b
 S6P1   -  6 angles/octant,  4 moments
 global grid:  10x  5x400
           2 domains   -            2 x           1 decomposition
          80 domain pipelined blocks -          10 k-planes by           3 angles each
 estimated memory usage per domain:    1.4 MB
         640 global messages per iteration
 99.69% domain parallel efficiency - due to decomposition & blocking
100.00% multitasking efficiency on   1 processors
 99.69% combined efficiency on a cluster of    2   1-way SMPs
 DSA leakage calculation: ON
 Flux fixups: ON (after          11 iterations)
 Iteration Monitor:
  its =            1  err =    1.0000000000000000        fixs =            0
  its =            2  err =    249.74662443113147        fixs =            0
  its =            3  err =    142.78507580502279        fixs =            0
  its =            4  err =    9.0989681019371975        fixs =            0
  its =            5  err =    2.0317451227480472        fixs =            0
  its =            6  err =    7.7541374791040951        fixs =            0
  its =            7  err =    1.6266119909161629        fixs =            0
  its =            8  err =   0.48315029122979153        fixs =            0
  its =            9  err =   0.18363578997593460        fixs =            0
  its =           10  err =    6.8015313193307836E-002   fixs =            0
 Balance quantities:
  External Source:   0.53600000000000037     
  Absorption:        0.13103328763831362     
  I-leakages:        -6.4170615380750418E-002   6.4170615380750390E-002
  J-leakages:       -0.13831273467495608       0.13831273467495608     
  K-leakages:         5.0695490021409671E-014  -5.0695490021409665E-014
 CPU     time was:    7.6200000000000001     
 Elapsed time was:    14.780689001083374     
 CPU grind time:   0.794    
 Wall grind time:   1.54    
